module app

go 1.18

require (
	github.com/aws/aws-sdk-go v1.44.162
	k8s.io/apimachinery v0.26.0
	k8s.io/client-go v0.26.0
	sigs.k8s.io/aws-iam-authenticator v0.6.1
	github.com/aws/aws-lambda-go v1.36.0
)

require (
	github.com/beorn7/perks v1.0.1 // indirect
	github.com/cespare/xxhash/v2 v2.1.1 // indirect
	github.com/davecgh/go-spew v1.1.1 // indirect
	github.com/emicklei/go-restful/v3 v3.9.0 // indirect
	github.com/go-logr/logr v1.2.3 // indirect
	github.com/go-openapi/jsonpointer v0.19.5 // indirect
	github.com/go-openapi/jsonreference v0.20.0 // indirect
	github.com/go-openapi/swag v0.19.14 // indirect
	github.com/gofrs/flock v0.7.0 // indirect
	github.com/gogo/protobuf v1.3.2 // indirect
	github.com/golang/protobuf v1.5.2 // indirect
	github.com/google/gnostic v0.5.7-v3refs // indirect
	github.com/google/go-cmp v0.5.9 // indirect
	github.com/google/gofuzz v1.1.0 // indirect
	github.com/jmespath/go-jmespath v0.4.0 // indirect
	github.com/josharian/intern v1.0.0 // indirect
	github.com/json-iterator/go v1.1.12 // indirect
	github.com/mailru/easyjson v0.7.6 // indirect
	github.com/matttproud/golang_protobuf_extensions v1.0.2-0.20181231171920-c182affec369 // indirect
	github.com/modern-go/concurrent v0.0.0-20180306012644-bacd9c7ef1dd // indirect
	github.com/modern-go/reflect2 v1.0.2 // indirect
	github.com/munnerz/goautoneg v0.0.0-20191010083416-a7dc8b61c822 // indirect
	github.com/prometheus/client_golang v1.11.0 // indirect
	github.com/prometheus/client_model v0.2.0 // indirect
	github.com/prometheus/common v0.26.0 // indirect
	github.com/prometheus/procfs v0.6.0 // indirect
	github.com/sirupsen/logrus v1.8.1 // indirect
	golang.org/x/net v0.3.1-0.20221206200815-1e63c2f08a10 // indirect
	golang.org/x/oauth2 v0.0.0-20220223155221-ee480838109b // indirect
	golang.org/x/sys v0.3.0 // indirect
	golang.org/x/term v0.3.0 // indirect
	golang.org/x/text v0.5.0 // indirect
	golang.org/x/time v0.0.0-20220210224613-90d013bbcef8 // indirect
	google.golang.org/appengine v1.6.7 // indirect
	google.golang.org/protobuf v1.28.1 // indirect
	gopkg.in/inf.v0 v0.9.1 // indirect
	gopkg.in/yaml.v2 v2.4.0 // indirect
	gopkg.in/yaml.v3 v3.0.1 // indirect
	k8s.io/api v0.26.0 // indirect
	k8s.io/klog/v2 v2.80.1 // indirect
	k8s.io/kube-openapi v0.0.0-20221012153701-172d655c2280 // indirect
	k8s.io/utils v0.0.0-20221107191617-1a15be271d1d // indirect
	sigs.k8s.io/json v0.0.0-20220713155537-f223a00ba0e2 // indirect
	sigs.k8s.io/structured-merge-diff/v4 v4.2.3 // indirect
	sigs.k8s.io/yaml v1.3.0 // indirect
)
